Jennifer Cheng - Himalayan Expeditions
…
Given that each record is of a member of an expedition, how many different expeditions occurred, according to the datasets?

For expeditions, will each row be a unique expedition?

expeditions %>% count(expedition_id, sort=TRUE)

# A tibble: 10,363 × 2
   expedition_id     n
   <chr>         <int>
 1 KANG10101         2
 2 ACHN15301         1
 3 ACHN15302         1
 4 ACHN18301         1
 5 AMAD00101         1
 6 AMAD00102         1
 7 AMAD00103         1
 8 AMAD00104         1
 9 AMAD00105         1
10 AMAD00106         1
# … with 10,353 more rows
…
The expeditions range from 1924 through the 1980s, and one from 2019. That one from 2019 is the only successful trip (termination date not available possibly due to it occurring after the end date of the dataset timeframe) while the rest were either rumored attempts or climbs that were not attempted, with one expedition not reaching the base camp.

Any IDs found in members but not in expeditions? (No)

setdiff(members$expedition_id, expeditions$expedition_id)

character(0)

Therefore, the number of unique expedition IDs in the members data (which has a total 76,519 rows) should be 13 less than number of unique observations in the expeditions data (which, as found earlier, has 10,364 with one “duplicate” ID).

members %>%
  count(expedition_id, sort=TRUE)

# A tibble: 10,350 × 2
   expedition_id     n
   <chr>         <int>
 1 EVER88101        99
 2 HIML13308        90
 3 EVER15106        79
 4 EVER08101        76
 5 MANA16304        71
 6 EVER18185        69
 7 EVER73101        68
 8 EVER13181        65
 9 EVER19117        65
10 EVER17110        64
# … with 10,340 more rows
…
With most of the percentages clustered under 20, I’ll create the groups as follows:

exp_women_v2 <- expeditions_women %>%
  mutate(pct_group = case_when(
    pct <= 10 ~ "1-10",
    pct > 10 & pct <= 20 ~ "11-20",
    pct > 20 ~ "More than 20")) %>%
  # to set order for colors
  mutate(pct_group = factor(pct_group, levels=c("1-10", "11-20", "More than 20")))

exp_women_v2

# A tibble: 49 × 5
   citizenship sex       n   pct pct_group   
   <chr>       <fct> <int> <dbl> <fct>       
 1 Andorra     Women    11    35 More than 20
 2 Argentina   Women    14     6 1-10        
 3 Australia   Women   191    13 11-20       
 4 Austria     Women   220    10 1-10        
 5 Belgium     Women    60    13 11-20       
 6 Brazil      Women    32    19 11-20       
 7 Bulgaria    Women    19     8 1-10        
 8 Canada      Women   171    15 11-20       
 9 Chile       Women    20    10 1-10        
10 China       Women   291    13 11-20       
# … with 39 more rows
…
