Jennifer Cheng - International Place Names Inside the U.S.
…
A Final List

After exporting city_matches via write_csv(city_matches, "city_matches.csv"), I used D3.js to create a map that lets users click a major non-US city and see the locations of US towns and cities that share the name. I’ll save country_matches maybe for another time.

To end this post, here are the top 10 international cities that appear most frequently as or within US municipality names:

city_matches %>% count(intl_city, sort=T)

# A tibble: 71 × 2
   intl_city     n
   <chr>     <int>
 1 Berlin       57
 2 London       49
 3 Paris        46
 4 Dublin       38
 5 Rome         37
 6 Hamburg      35
 7 Leon         33
 8 Cairo        30
 9 Vienna       29
10 Damascus     27
# … with 61 more rows
…
