Jennifer Cheng - Chocolate Bars
…
Out of Curiosity

Are there words disproportionately associated with a country where a bean originated or a a country of the manufacturing company?

library(tidytext)

chocolate_raw %>%
  unnest_tokens(word, most_memorable_characteristics) %>%
  count(country_of_bean_origin, word, sort = TRUE) %>%
  bind_tf_idf(term = word, document = country_of_bean_origin, n) %>% # calculates TF-IDF
  arrange(desc(tf_idf)) %>%
  #top_n(20, wt = tf_idf) %>%
  filter(n>20)

# A tibble: 36 × 6
   country_of_bean_origin word       n     tf   idf tf_idf
   <chr>                  <chr>  <int>  <dbl> <dbl>  <dbl>
 1 Papua New Guinea       smoke     27 0.155  1.13  0.176 
 2 Ecuador                floral    82 0.112  0.795 0.0893
 3 Madagascar             red       25 0.0394 1.82  0.0719
 4 Madagascar             sour      44 0.0694 0.631 0.0438
 5 Venezuela              nutty     88 0.102  0.389 0.0397
 6 Madagascar             tart      23 0.0363 1.08  0.0393
 7 Blend                  bitter    24 0.0440 0.795 0.0350
 8 Ecuador                bitter    30 0.0411 0.795 0.0327
 9 Blend                  sweet     31 0.0569 0.490 0.0278
10 Madagascar             fruit     36 0.0568 0.490 0.0278
# … with 26 more rows
…
# instead of going by word units, break up by placement of comma => there will be one word, two words, etc.
chocolate_raw %>%
  select(most_memorable_characteristics, rating) %>%
  # split at comma
  separate_rows(most_memorable_characteristics, sep = ',', convert = TRUE) %>%
  #filter(str_detect(most_memorable_characteristics, regex(" "))) %>%
  group_by(most_memorable_characteristics) %>%
  summarize(characteristic_count = n(), mean_rating = median(rating)) %>%
  filter(characteristic_count>20) %>% arrange(desc(mean_rating))

# A tibble: 71 × 3
   most_memorable_characteristics characteristic_count mean_rating
   <chr>                                         <int>       <dbl>
 1 " banana"                                        33         3.5
 2 " cherry"                                        27         3.5
 3 " citrus"                                        21         3.5
 4 " cocoa"                                        210         3.5
 5 " creamy"                                        26         3.5
 6 " dairy"                                         34         3.5
 7 " dried fruit"                                   46         3.5
 8 " fruity"                                        37         3.5
 9 " honey"                                         26         3.5
10 " melon"                                         22         3.5
# … with 61 more rows

chocolate_raw %>%
  separate_rows(most_memorable_characteristics, sep = ',', convert = TRUE) %>%
  mutate(most_memorable_characteristics = str_squish(most_memorable_characteristics)) %>%
  count(country_of_bean_origin, most_memorable_characteristics, sort = TRUE) %>%
  bind_tf_idf(term = most_memorable_characteristics, document = country_of_bean_origin, n) %>%
  arrange(desc(tf_idf)) %>%
  filter(n>20)

# A tibble: 21 × 6
   country_of_bean_origin most_memorable_characteris…¹     n     tf   idf tf_idf
   <chr>                  <chr>                        <int>  <dbl> <dbl>  <dbl>
 1 Ecuador                floral                          72 0.12   0.831 0.0998
 2 Venezuela              nutty                           84 0.116  0.414 0.0481
 3 Madagascar             sour                            27 0.0557 0.795 0.0443
 4 Blend                  sweet                           27 0.0609 0.490 0.0298
 5 Venezuela              creamy                          33 0.0457 0.601 0.0275
 6 Blend                  cocoa                           26 0.0587 0.438 0.0257
 7 Dominican Republic     earthy                          35 0.0546 0.464 0.0253
 8 Ecuador                spicy                           21 0.035  0.693 0.0243
 9 Venezuela              roasty                          33 0.0457 0.516 0.0236
10 Dominican Republic     spicy                           21 0.0328 0.693 0.0227
# … with 11 more rows, and abbreviated variable name
#   ¹​most_memorable_characteristics
…
